Get historical market data — coin_history • geckor
…
This function is based on the public
CoinGecko API,
which has a limit of 50 calls per minute. Please
keep this limit in mind when developing your applications.

    Examples

# \donttest{
r <- coin_history(coin_id = "bitcoin", vs_currency = "usd", days = 30)
print(r)

#> # A tibble: 721 x 6
#>    timestamp           coin_id vs_currency  price total_volume    market_cap
#>    <dttm>              <chr>   <chr>        <dbl>        <dbl>         <dbl>
#>  1 2021-07-12 11:51:00 bitcoin usd         33705. 19798408238. 632506446187.
#>  2 2021-07-12 11:03:35 bitcoin usd         33747. 19452141518. 632679635740.
#>  3 2021-07-12 10:01:10 bitcoin usd         34185. 19123518019. 641341225415.
#>  4 2021-07-12 09:01:16 bitcoin usd         34323. 19132119089. 643695504310.
#>  5 2021-07-12 08:00:25 bitcoin usd         34357. 19020435107. 645137768238.
#>  6 2021-07-12 07:00:49 bitcoin usd         34437. 18900002368. 645846833924.
#>  7 2021-07-12 06:01:40 bitcoin usd         34257. 18490179943. 641826036668.
#>  8 2021-07-12 05:01:03 bitcoin usd         34371. 18719209402. 645243754813.
#>  9 2021-07-12 04:01:38 bitcoin usd         34597. 18402000751. 646774406080.
#> 10 2021-07-12 03:01:04 bitcoin usd         34298. 17782445967. 643232464120.
#> # … with 711 more rows
…
