Historical OHLC price data — coin_history_ohlc • geckor
…
This function is based on the public
CoinGecko API,
which has a limit of 50 calls per minute. Please
keep this limit in mind when developing your applications.

    Examples

# \donttest{
r <- coin_history_ohlc(
  coin_id = "cardano",
  vs_currency = "usd",
  days = 7
)
print(r)
#> # A tibble: 42 × 7
#>    timestamp           coin_id vs_currency price_open price_high price_low
#>    <dttm>              <chr>   <chr>            <dbl>      <dbl>     <dbl>
#>  1 2021-10-25 20:00:00 cardano usd               2.17       2.18      2.17
#>  2 2021-10-26 00:00:00 cardano usd               2.16       2.16      2.15
#>  3 2021-10-26 04:00:00 cardano usd               2.14       2.18      2.14
#>  4 2021-10-26 08:00:00 cardano usd               2.19       2.19      2.18
#>  5 2021-10-26 12:00:00 cardano usd               2.2        2.2       2.19
#>  6 2021-10-26 16:00:00 cardano usd               2.18       2.18      2.16
#>  7 2021-10-26 20:00:00 cardano usd               2.17       2.18      2.15
#>  8 2021-10-27 00:00:00 cardano usd               2.17       2.19      2.14
#>  9 2021-10-27 04:00:00 cardano usd               2.15       2.15      2.15
#> 10 2021-10-27 08:00:00 cardano usd               2.15       2.16      2.14
#> # … with 32 more rows, and 1 more variable: price_close <dbl>
…
