Historical market data • geckor
…
# Range of >90 days:
coin_history_range(
  coin_id = "bitcoin", 
  vs_currency = "usd",
  from = as.POSIXct("2021-01-01 00:00:00"),
  to = as.POSIXct("2021-05-01 00:00:00")
)
#> # A tibble: 121 x 5
#>    timestamp           vs_currency  price total_volume market_cap
#>    <dttm>              <chr>        <dbl>        <dbl>      <dbl>
#>  1 2021-05-01 00:00:00 usd         57829. 53879045974.    1.08e12
#>  2 2021-04-30 00:00:00 usd         53597. 46958036373.    1.00e12
#>  3 2021-04-29 00:00:00 usd         54811. 48072930663.    1.02e12
#>  4 2021-04-28 00:00:00 usd         54992. 48468560013.    1.03e12
#>  5 2021-04-27 00:00:00 usd         53979. 60226926860.    1.01e12
#>  6 2021-04-26 00:00:00 usd         48981. 46233432154.    9.16e11
#>  7 2021-04-25 00:00:00 usd         50133. 49296256746.    9.37e11
#>  8 2021-04-24 00:00:00 usd         51191. 91138220375.    9.57e11
#>  9 2021-04-23 00:00:00 usd         51966. 77897442832.    9.71e11
#> 10 2021-04-22 00:00:00 usd         54190. 56115370322.    1.01e12
#> # … with 111 more rows

To retrieve historical data from the last n days only, use the coin_history():

coin_history(
  coin_id = "bitcoin",
  vs_currency = "usd",
  days = 7
)
#> # A tibble: 170 x 6
#>    timestamp           coin_id vs_currency  price total_volume    market_cap
#>    <dttm>              <chr>   <chr>        <dbl>        <dbl>         <dbl>
#>  1 2021-07-11 19:59:33 bitcoin usd         33951. 16770161469. 637251106087.
#>  2 2021-07-11 19:01:12 bitcoin usd         34055. 16951130905. 638765672362.
#>  3 2021-07-11 18:00:21 bitcoin usd         34011. 17063811588. 637343346856.
#>  4 2021-07-11 17:01:02 bitcoin usd         34094. 17657223064. 639386761137.
#>  5 2021-07-11 16:01:42 bitcoin usd         34017. 17634957337. 636578213105.
#>  6 2021-07-11 15:00:16 bitcoin usd         34050. 17900878832. 634891176041.
#>  7 2021-07-11 14:00:41 bitcoin usd         33893. 17851009260. 635642410309.
#>  8 2021-07-11 13:01:07 bitcoin usd         33819. 17993284907. 634236120903.
#>  9 2021-07-11 12:01:19 bitcoin usd         33830. 18106223820. 634432334824.
#> 10 2021-07-11 11:01:03 bitcoin usd         33802. 18305798503. 632826562876.
#> # … with 160 more rows

In addition to numeric values, the days argument also accepts a character value "max", which results in retrieving the entire existing history of market data for a coin (please note: querying the entire history can take some time):

coin_history(
  coin_id = "bitcoin",
  vs_currency = "usd",
  days = "max"
)
#> # A tibble: 2,995 x 6
#>    timestamp           coin_id vs_currency  price total_volume    market_cap
#>    <dttm>              <chr>   <chr>        <dbl>        <dbl>         <dbl>
#>  1 2021-07-11 17:16:27 bitcoin usd         34051. 17500046892. 639071760282.
#>  2 2021-07-10 00:00:00 bitcoin usd         33971. 24282108111. 637000370375.
#>  3 2021-07-09 00:00:00 bitcoin usd         32934. 29065577052. 617861633772.
#>  4 2021-07-08 00:00:00 bitcoin usd         33932. 23692220470. 636246944189.
#>  5 2021-07-07 00:00:00 bitcoin usd         34150. 26106856612. 640405812762.
#>  6 2021-07-06 00:00:00 bitcoin usd         33928. 25894820185. 636061920915.
#>  7 2021-07-05 00:00:00 bitcoin usd         35394. 22727930418. 663571591568.
#>  8 2021-07-04 00:00:00 bitcoin usd         34730. 22986053605. 650382046625.
#>  9 2021-07-03 00:00:00 bitcoin usd         33951. 25084046353. 633684390026.
#> 10 2021-07-02 00:00:00 bitcoin usd         33678. 29129630236. 629863895572.
#> # … with 2,985 more rows
…
# More than 90 days, with `interval = "daily"`:
coin_history(
  coin_id = "bitcoin",
  vs_currency = "usd",
  days = 100, 
  interval = "daily"
)
#> # A tibble: 101 x 6
#>    timestamp           coin_id vs_currency  price total_volume    market_cap
#>    <dttm>              <chr>   <chr>        <dbl>        <dbl>         <dbl>
#>  1 2021-07-11 15:59:30 bitcoin usd         33944. 17596720290. 636970374009.
#>  2 2021-07-11 00:00:00 bitcoin usd         33705. 20558304484. 632185737683.
#>  3 2021-07-10 00:00:00 bitcoin usd         33971. 24282108111. 637000370375.
#>  4 2021-07-09 00:00:00 bitcoin usd         32934. 29065577052. 617861633772.
#>  5 2021-07-08 00:00:00 bitcoin usd         33932. 23692220470. 636246944189.
#>  6 2021-07-07 00:00:00 bitcoin usd         34150. 26106856612. 640405812762.
#>  7 2021-07-06 00:00:00 bitcoin usd         33928. 25894820185. 636061920915.
#>  8 2021-07-05 00:00:00 bitcoin usd         35394. 22727930418. 663571591568.
#>  9 2021-07-04 00:00:00 bitcoin usd         34730. 22986053605. 650382046625.
#> 10 2021-07-03 00:00:00 bitcoin usd         33951. 25084046353. 633684390026.
#> # … with 91 more rows
…
1 day: 30 minutes

7 - 30 days: 4 hours

31 and above: 4 days

The only values currently accepted by the days argument are 1, 7, 14, 30, 90, 180, 365 and "max". Here are some examples:

# 30-minutes granularity:
coin_history_ohlc(
  coin_id = "bitcoin", 
  vs_currency = "usd",
  days = 1
)
#> # A tibble: 49 x 7
#>    timestamp           coin_id vs_currency price_open price_high price_low
#>    <dttm>              <chr>   <chr>            <dbl>      <dbl>     <dbl>
#>  1 2021-07-10 20:30:00 bitcoin usd             33212.     33212.    33185.
#>  2 2021-07-10 21:00:00 bitcoin usd             33339.     33418.    33339.
#>  3 2021-07-10 21:30:00 bitcoin usd             33407.     33497.    33312.
#>  4 2021-07-10 22:00:00 bitcoin usd             33538.     33538.    33476.
#>  5 2021-07-10 22:30:00 bitcoin usd             33530.     33645.    33530.
#>  6 2021-07-10 23:00:00 bitcoin usd             33587.     33635.    33512.
#>  7 2021-07-10 23:30:00 bitcoin usd             33686.     33745     33686.
#>  8 2021-07-11 00:00:00 bitcoin usd             33710.     33711.    33704.
#>  9 2021-07-11 00:30:00 bitcoin usd             33667.     33831.    33528.
#> 10 2021-07-11 01:00:00 bitcoin usd             33703.     33819.    33677.
#> # … with 39 more rows, and 1 more variable: price_close <dbl>

# 4-hours granularity:
coin_history_ohlc(
  coin_id = "bitcoin", 
  vs_currency = "usd",
  days = 7
)
#> # A tibble: 43 x 7
#>    timestamp           coin_id vs_currency price_open price_high price_low
#>    <dttm>              <chr>   <chr>            <dbl>      <dbl>     <dbl>
#>  1 2021-07-05 00:00:00 bitcoin usd             35600.     36000.    35440.
#>  2 2021-07-05 04:00:00 bitcoin usd             35394.     35394.    34503.
#>  3 2021-07-05 08:00:00 bitcoin usd             34449.     34458.    34277.
#>  4 2021-07-05 12:00:00 bitcoin usd             34354.     34627.    34285.
#>  5 2021-07-05 16:00:00 bitcoin usd             33593.     33813.    33591.
#>  6 2021-07-05 20:00:00 bitcoin usd             33740.     34067.    33478.
#>  7 2021-07-06 00:00:00 bitcoin usd             34207.     34261.    33919.
#>  8 2021-07-06 04:00:00 bitcoin usd             33907.     34174.    33894.
#>  9 2021-07-06 08:00:00 bitcoin usd             33977.     34787.    33977.
#> 10 2021-07-06 12:00:00 bitcoin usd             34901.     34982.    33905.
#> # … with 33 more rows, and 1 more variable: price_close <dbl>

# 4-days granularity:
coin_history_ohlc(
  coin_id = "bitcoin", 
  vs_currency = "usd",
  days = 90
)
#> # A tibble: 24 x 7
#>    timestamp           coin_id vs_currency price_open price_high price_low
#>    <dttm>              <chr>   <chr>            <dbl>      <dbl>     <dbl>
#>  1 2021-04-15 00:00:00 bitcoin usd             59911.     63577.    59911.
#>  2 2021-04-19 00:00:00 bitcoin usd             63180.     63180.    56289.
#>  3 2021-04-23 00:00:00 bitcoin usd             55721.     56295.    51966.
#>  4 2021-04-27 00:00:00 bitcoin usd             51191.     53979.    48981.
#>  5 2021-04-30 00:00:00 bitcoin usd             54992.     54992.    53597.
#>  6 2021-05-03 00:00:00 bitcoin usd             57829.     57829.    56601.
#>  7 2021-05-07 00:00:00 bitcoin usd             57200.     57432.    53464.
#>  8 2021-05-11 00:00:00 bitcoin usd             57362.     58772.    55902.
#>  9 2021-05-15 00:00:00 bitcoin usd             56929.     56929.    49913.
#> 10 2021-05-19 00:00:00 bitcoin usd             46781.     46781.    43091.
#> # … with 14 more rows, and 1 more variable: price_close <dbl>

# 4-days granularity:
coin_history_ohlc(
  coin_id = "bitcoin", 
  vs_currency = "usd",
  days = "max"
)
#> # A tibble: 782 x 7
#>    timestamp           coin_id vs_currency price_open price_high price_low
#>    <dttm>              <chr>   <chr>            <dbl>      <dbl>     <dbl>
#>  1 2013-04-30 00:00:00 bitcoin usd               135.       142.     135. 
#>  2 2013-05-03 00:00:00 bitcoin usd               117        117       91.0
#>  3 2013-05-07 00:00:00 bitcoin usd               111.       118.     106. 
#>  4 2013-05-11 00:00:00 bitcoin usd               113.       119.     113. 
#>  5 2013-05-15 00:00:00 bitcoin usd               115.       117.     114. 
#>  6 2013-05-19 00:00:00 bitcoin usd               116.       124.     116. 
#>  7 2013-05-23 00:00:00 bitcoin usd               123.       126.     123. 
#>  8 2013-05-27 00:00:00 bitcoin usd               132.       135.     129. 
#>  9 2013-05-31 00:00:00 bitcoin usd               129.       132.     127. 
#> 10 2013-06-03 00:00:00 bitcoin usd               129.       129.     121. 
#> # … with 772 more rows, and 1 more variable: price_close <dbl>
…
